<!DOCTYPE svg PUBLIC "-//W3C//DTD SVG 1.1//EN" "http://www.w3.org/Graphics/SVG/1.1/DTD/svg11.dtd">
<!-- Uploaded to: SVG Repo, www.svgrepo.com, Transformed by: SVG Repo Mixer Tools -->
<svg fill="#9141ac" width="256px" height="256px" viewBox="0 0 32.00 32.00" xmlns="http://www.w3.org/2000/svg" stroke="#9141ac" stroke-width="0.00032">
<g id="SVGRepo_bgCarrier" stroke-width="0"/>
<g id="SVGRepo_tracerCarrier" stroke-linecap="round" stroke-linejoin="round"/>
<g id="SVGRepo_iconCarrier">
<path d="M18.65.226A16 16 0 0016 0C7.16 0 0 7.16 0 16c0 3.394 1.067 6.53 2.86 9.131 1.1-1.616 3.637-2.731 6.578-2.731 2.02 0 3.847.533 5.156 1.39L18.65.226zm8.502 4.315c2.763 6.11.339 9.374.339 9.374-1.875-5.64-7.305-6.464-7.305-6.464s-3.572 19.248-3.572 19.49c0 2.085-2.214 3.847-5.22 4.38A16.01 16.01 0 0016 32c8.84 0 16-7.16 16-16 0-4.493-1.859-8.55-4.848-11.459z"/>
</g>
</svg>